…
Load the **tidytext** package into the session, as we did with **dplyr**.

``` r
library(tidytext)
```

Then, run the following to tokenize:

``` r
text_df %>% 
  unnest_tokens(word, text)
```

    ## # A tibble: 35 x 2
    ##     line word  
    ##    <int> <chr> 
    ##  1     1 the   
    ##  2     1 time  
    ##  3     1 has   
    ##  4     1 come  
    ##  5     1 the   
    ##  6     1 walrus
    ##  7     1 said  
    ##  8     2 to    
    ##  9     2 talk  
    ## 10     2 of    
    ## # … with 25 more rows

You can replace the data in your environment with this new tibble by running the following:

``` r
text_df <- text_df %>%
  unnest_tokens(word, text)

text_df
```

    ## # A tibble: 35 x 2
    ##     line word  
    ##    <int> <chr> 
    ##  1     1 the   
    ##  2     1 time  
    ##  3     1 has   
    ##  4     1 come  
    ##  5     1 the   
    ##  6     1 walrus
    ##  7     1 said  
    ##  8     2 to    
    ##  9     2 talk  
    ## 10     2 of    
    ## # … with 25 more rows
…
Then, run the following:

``` r
frankenstein <- gutenberg_download(c(42324))
```

    ## Determining mirror for Project Gutenberg from http://www.gutenberg.org/robot/harvest

    ## Using mirror http://aleph.gutenberg.org

``` r
frankenstein
```

    ## # A tibble: 7,631 x 2
    ##    gutenberg_id text                                                       
    ##           <int> <chr>                                                      
    ##  1        42324 "                             FRANKENSTEIN:"               
    ##  2        42324 ""                                                         
    ##  3        42324 "                                  OR,"                    
    ##  4        42324 ""                                                         
    ##  5        42324 "                         THE MODERN PROMETHEUS."          
    ##  6        42324 ""                                                         
    ##  7        42324 "                          BY MARY W. SHELLEY."            
    ##  8        42324 ""                                                         
    ##  9        42324 "            AUTHOR OF THE LAST MAN, PERKIN WARBECK, &c. &…
    ## 10        42324 ""                                                         
    ## # … with 7,621 more rows

If you look at the first few rows, you see that this also includes the novel’s front matter (i.e. title page, publishing info, introduction, etc.). If you were to examine the last rows, you would also see it includes additional publishing information and the transcriber’s notes. Since we’re only interested in analyzing Shelley’s novel, it would be useful to remove these rows.

Run the following to remove the front matter (rows 1-237) and back matter (rows 7620-7631):

``` r
frankenstein <- frankenstein[-c(1:237, 7620:7631), ]

frankenstein
```

    ## # A tibble: 7,382 x 2
    ##    gutenberg_id text                                                       
    ##           <int> <chr>                                                      
    ##  1        42324 PREFACE.                                                   
    ##  2        42324 ""                                                         
    ##  3        42324 ""                                                         
    ##  4        42324 The event on which this fiction is founded, has been suppo…
    ##  5        42324 Darwin, and some of the physiological writers of Germany, …
    ##  6        42324 impossible occurrence. I shall not be supposed as accordin…
    ##  7        42324 degree of serious faith to such an imagination; yet, in as…
    ##  8        42324 the basis of a work of fancy, I have not considered myself…
    ##  9        42324 weaving a series of supernatural terrors. The event on whi…
    ## 10        42324 interest of the story depends is exempt from the disadvant…
    ## # … with 7,372 more rows

Now we’re ready to tokenize. During this process, we can add an additional argument to order the words according to the word count. Run the following to create a new tibble with the tokenized text, ordered according to word count:

``` r
tidy_frankenstein <- frankenstein %>%
  unnest_tokens(word, text) %>%
  count(word, sort = TRUE)

tidy_frankenstein
```

    ## # A tibble: 7,117 x 2
    ##    word      n
    ##    <chr> <int>
    ##  1 the    4248
    ##  2 and    2993
    ##  3 i      2858
    ##  4 of     2684
    ##  5 to     2114
    ##  6 my     1781
    ##  7 a      1402
    ##  8 in     1141
    ##  9 was    1026
    ## 10 that   1020
    ## # … with 7,107 more rows
…
Now, you can remove the stop words from your data frame:

``` r
tidy_frankenstein <- tidy_frankenstein %>%
  anti_join(stop_words)
```

    ## Joining, by = "word"

``` r
tidy_frankenstein
```

    ## # A tibble: 6,637 x 2
    ##    word          n
    ##    <chr>     <int>
    ##  1 life        115
    ##  2 father      112
    ##  3 time        107
    ##  4 eyes        104
    ##  5 night        92
    ##  6 elizabeth    88
    ##  7 day          87
    ##  8 found        87
    ##  9 mind         86
    ## 10 heart        83
    ## # … with 6,627 more rows
…
### 6. Sentiment Lexicons

One type of textual analysis that can be conducted using R is sentiment analysis in which the emotions of a given text or set of texts is examined. To conduct sentiment analysis, we can use sentiment lexicons. There are three lexicons that can be used for general sentiment analysis on English-language texts: **AFINN** (Finn Årup Nielsen), **bing** (Bing Liu et. Al) and **nrc** (Saif Mohammad and Peter Turney). These lexicons assign scores for positive and negative sentiment, and also emotions such as joy, anger, fear, etc.

-   **nrc** categorizes words as positive, negative, anger, anticipation, disgust, fear, joy, sadness, surprise and trust.
-   **bing** categorizes words as positive or negative.
-   **AFINN** assigns words a numeric score between -5 and 5, where the negative scores indicate negative sentiment and positive scores indicate positive sentiment.

All three of these lexicons are included in the **sentiments** dataset, and **tidytext** provides the function **get\_sentiments( )**, which can be used to call specific lexicons. To call the **bing** lexicon, for example, run the following:

``` r
get_sentiments("bing")
```

    ## # A tibble: 6,788 x 2
    ##    word        sentiment
    ##    <chr>       <chr>    
    ##  1 2-faced     negative 
    ##  2 2-faces     negative 
    ##  3 a+          positive 
    ##  4 abnormal    negative 
    ##  5 abolish     negative 
    ##  6 abominable  negative 
    ##  7 abominably  negative 
    ##  8 abominate   negative 
    ##  9 abomination negative 
    ## 10 abort       negative 
    ## # … with 6,778 more rows

Now, call the **AFINN** sentiment lexicon.

``` r
get_sentiments("afinn")
```

    ## # A tibble: 2,476 x 2
    ##    word       score
    ##    <chr>      <int>
    ##  1 abandon       -2
    ##  2 abandoned     -2
    ##  3 abandons      -2
    ##  4 abducted      -2
    ##  5 abduction     -2
    ##  6 abductions    -2
    ##  7 abhor         -3
    ##  8 abhorred      -3
    ##  9 abhorrent     -3
    ## 10 abhors        -3
    ## # … with 2,466 more rows

Finally, call the **nrc** lexicon.

``` r
get_sentiments("nrc")
```

    ## # A tibble: 13,901 x 2
    ##    word        sentiment
    ##    <chr>       <chr>    
    ##  1 abacus      trust    
    ##  2 abandon     fear     
    ##  3 abandon     negative 
    ##  4 abandon     sadness  
    ##  5 abandoned   anger    
    ##  6 abandoned   fear     
    ##  7 abandoned   negative 
    ##  8 abandoned   sadness  
    ##  9 abandonment anger    
    ## 10 abandonment fear     
    ## # … with 13,891 more rows
…
Run the following code chunk to create a new data frame connecting the **bing** sentiment lexicon to the **tidy\_frankenstein** tibble you created earlier.

``` r
frankenstein_bing <- tidy_frankenstein %>%
  inner_join(get_sentiments("bing"))
```

    ## Joining, by = "word"

``` r
frankenstein_bing
```

    ## # A tibble: 1,473 x 3
    ##    word          n sentiment
    ##    <chr>     <int> <chr>    
    ##  1 death        80 negative 
    ##  2 miserable    65 negative 
    ##  3 love         59 positive 
    ##  4 misery       54 negative 
    ##  5 despair      49 negative 
    ##  6 happiness    49 positive 
    ##  7 happy        46 positive 
    ##  8 poor         45 negative 
    ##  9 joy          42 positive 
    ## 10 affection    41 positive 
    ## # … with 1,463 more rows
…
We can also use the **nrc** sentiment lexicon to get a better insight into how specific emotions play a role in a given text by filtering the data and joining it to your tokenized text. To see how fear appears in Frankenstein, run the following code chunks:

``` r
nrc_fear <- get_sentiments("nrc") %>%
  filter(sentiment == "fear")

nrc_fear
```

    ## # A tibble: 1,476 x 2
    ##    word        sentiment
    ##    <chr>       <chr>    
    ##  1 abandon     fear     
    ##  2 abandoned   fear     
    ##  3 abandonment fear     
    ##  4 abduction   fear     
    ##  5 abhor       fear     
    ##  6 abhorrent   fear     
    ##  7 abominable  fear     
    ##  8 abomination fear     
    ##  9 abortion    fear     
    ## 10 absence     fear     
    ## # … with 1,466 more rows

``` r
tidy_frankenstein %>%
  inner_join(nrc_fear)
```

    ## Joining, by = "word"

    ## # A tibble: 493 x 3
    ##    word          n sentiment
    ##    <chr>     <int> <chr>    
    ##  1 death        80 fear     
    ##  2 misery       54 fear     
    ##  3 despair      49 fear     
    ##  4 horror       45 fear     
    ##  5 creature     43 fear     
    ##  6 fear         40 fear     
    ##  7 journey      37 fear     
    ##  8 possessed    36 fear     
    ##  9 fiend        32 fear     
    ## 10 monster      31 fear     
    ## # … with 483 more rows

Repeat this process looking at the words associated with **disgust**.

``` r
nrc_disgust <- get_sentiments("nrc") %>%
  filter(sentiment == "disgust")

nrc_disgust
```

    ## # A tibble: 1,058 x 2
    ##    word        sentiment
    ##    <chr>       <chr>    
    ##  1 aberration  disgust  
    ##  2 abhor       disgust  
    ##  3 abhorrent   disgust  
    ##  4 abject      disgust  
    ##  5 abnormal    disgust  
    ##  6 abominable  disgust  
    ##  7 abomination disgust  
    ##  8 abortion    disgust  
    ##  9 abundance   disgust  
    ## 10 abuse       disgust  
    ## # … with 1,048 more rows

``` r
tidy_frankenstein %>%
  inner_join(nrc_disgust)
```

    ## Joining, by = "word"

    ## # A tibble: 277 x 3
    ##    word          n sentiment
    ##    <chr>     <int> <chr>    
    ##  1 death        80 disgust  
    ##  2 miserable    65 disgust  
    ##  3 misery       54 disgust  
    ##  4 despair      49 disgust  
    ##  5 horror       45 disgust  
    ##  6 creature     43 disgust  
    ##  7 possessed    36 disgust  
    ##  8 fiend        32 disgust  
    ##  9 feeling      28 disgust  
    ## 10 murderer     27 disgust  
    ## # … with 267 more rows
…
    ## Joining, by = "word"

``` r
frankenstein_sections
```

    ## # A tibble: 27,543 x 3
    ##    gutenberg_id section word         
    ##           <int>   <int> <chr>        
    ##  1        42324       0 preface      
    ##  2        42324       0 event        
    ##  3        42324       0 fiction      
    ##  4        42324       0 founded      
    ##  5        42324       0 supposed     
    ##  6        42324       0 dr           
    ##  7        42324       0 darwin       
    ##  8        42324       0 physiological
    ##  9        42324       0 writers      
    ## 10        42324       0 germany      
    ## # … with 27,533 more rows
…
``` r
frankenstein_afinn <- frankenstein_sections %>%
  inner_join(get_sentiments("afinn")) %>%
  group_by(index = section) %>%
  summarize(sentiment = sum(score)) %>%
  mutate(method = "AFINN")
```

    ## Joining, by = "word"

``` r
frankenstein_afinn
```

    ## # A tibble: 30 x 3
    ##    index sentiment method
    ##    <int>     <int> <chr> 
    ##  1     0        23 AFINN 
    ##  2     1        66 AFINN 
    ##  3     2        61 AFINN 
    ##  4     3        27 AFINN 
    ##  5     4        -2 AFINN 
    ##  6     5        81 AFINN 
    ##  7     6        62 AFINN 
    ##  8     7         1 AFINN 
    ##  9     8        38 AFINN 
    ## 10     9         2 AFINN 
    ## # … with 20 more rows
…
    ## Joining, by = "word"
    ## Joining, by = "word"

``` r
frankenstein_bingnrc
```

    ## # A tibble: 60 x 5
    ##    method      index negative positive sentiment
    ##    <chr>       <int>    <dbl>    <dbl>     <dbl>
    ##  1 Bing et al.     0       16       20         4
    ##  2 Bing et al.     1       32       58        26
    ##  3 Bing et al.     2       49       72        23
    ##  4 Bing et al.     3       10       15         5
    ##  5 Bing et al.     4      113       94       -19
    ##  6 Bing et al.     5       60       89        29
    ##  7 Bing et al.     6       84      102        18
    ##  8 Bing et al.     7       90       81        -9
    ##  9 Bing et al.     8      103       99        -4
    ## 10 Bing et al.     9      111       64       -47
    ## # … with 50 more rows
…
``` r
frank_bingcounts <- frankenstein_sections %>%
  inner_join(get_sentiments("bing")) %>%
  count(word, sentiment, sort = TRUE) %>%
  ungroup()
```

    ## Joining, by = "word"

``` r
frank_bingcounts
```

    ## # A tibble: 1,473 x 3
    ##    word      sentiment     n
    ##    <chr>     <chr>     <int>
    ##  1 death     negative     80
    ##  2 miserable negative     65
    ##  3 love      positive     59
    ##  4 misery    negative     54
    ##  5 despair   negative     49
    ##  6 happiness positive     49
    ##  7 happy     positive     46
    ##  8 poor      negative     45
    ##  9 joy       positive     42
    ## 10 affection positive     41
    ## # … with 1,463 more rows
…
    ## Joining, by = "word"

``` r
frank_nrccounts
```

    ## # A tibble: 1,707 x 3
    ##    word      sentiment     n
    ##    <chr>     <chr>     <int>
    ##  1 found     positive     87
    ##  2 death     negative     80
    ##  3 dear      positive     72
    ##  4 friend    positive     71
    ##  5 miserable negative     65
    ##  6 love      positive     59
    ##  7 misery    negative     54
    ##  8 words     negative     54
    ##  9 hope      positive     51
    ## 10 despair   negative     49
    ## # … with 1,697 more rows
…
Next, we will need to tokenize the lyrics, and group them per song.

``` r
queen <- queen %>%
  group_by(song) %>%
  ungroup()%>%
  unnest_tokens(word, text)

queen
```

    ## # A tibble: 44,521 x 2
    ##    song      word  
    ##    <chr>     <chr> 
    ##  1 It's Late you   
    ##  2 It's Late say   
    ##  3 It's Late you   
    ##  4 It's Late love  
    ##  5 It's Late me    
    ##  6 It's Late and   
    ##  7 It's Late i     
    ##  8 It's Late hardly
    ##  9 It's Late know  
    ## 10 It's Late your  
    ## # … with 44,511 more rows
Now let’s count the most common words in Queen lyrics. Create a tibble for words in Queen lyrics, sorted by word count and with stop words removed.

``` r
tidy_queen <- queen %>%
  count(word, sort = TRUE) %>%
  anti_join(stop_words)
```

    ## Joining, by = "word"

``` r
tidy_queen
```

    ## # A tibble: 3,018 x 2
    ##    word      n
    ##    <chr> <int>
    ##  1 love    469
    ##  2 yeah    354
    ##  3 time    219
    ##  4 day     148
    ##  5 baby    141
    ##  6 hey     139
    ##  7 live    139
    ##  8 life    138
    ##  9 gonna   134
    ## 10 heart   120
    ## # … with 3,008 more rows

Song lyrics often include words such as “yeah” and “hey,” which you might want to exclude from your analysis.[5] You can create a custom stop words list by running the following:

``` r
lyric_stop_words <- bind_rows(data_frame(word = 
                                           c("yeah","baby","hey", "la","oooh",
                                             "ah","ooh"),
                                         lexicon = c("custom")), stop_words)

lyric_stop_words
```

    ## # A tibble: 1,156 x 2
    ##    word  lexicon
    ##    <chr> <chr>  
    ##  1 yeah  custom 
    ##  2 baby  custom 
    ##  3 hey   custom 
    ##  4 la    custom 
    ##  5 oooh  custom 
    ##  6 ah    custom 
    ##  7 ooh   custom 
    ##  8 a     SMART  
    ##  9 a's   SMART  
    ## 10 able  SMART  
    ## # … with 1,146 more rows

Use the **anti\_join()** function to remove your custom stop words from **tidy\_queen**.

``` r
tidy_queen <- tidy_queen %>%
  anti_join(lyric_stop_words)
```

    ## Joining, by = "word"

``` r
tidy_queen
```

    ## # A tibble: 3,011 x 2
    ##    word      n
    ##    <chr> <int>
    ##  1 love    469
    ##  2 time    219
    ##  3 day     148
    ##  4 live    139
    ##  5 life    138
    ##  6 gonna   134
    ##  7 heart   120
    ##  8 world   105
    ##  9 night    99
    ## 10 leave    94
    ## # … with 3,001 more rows
…
``` r
queen_afinn <- queen %>%
  inner_join(get_sentiments("afinn")) %>%
  inner_join(tidy_queen)
```

    ## Joining, by = "word"
    ## Joining, by = "word"

``` r
queen_afinn
```

    ## # A tibble: 3,071 x 4
    ##    song      word    score     n
    ##    <chr>     <chr>   <int> <int>
    ##  1 It's Late love        3   469
    ##  2 It's Late love        3   469
    ##  3 It's Late blame      -2     6
    ##  4 It's Late love        3   469
    ##  5 It's Late feeling     1    48
    ##  6 It's Late steal      -2     2
    ##  7 It's Late crying     -2     6
    ##  8 It's Late love        3   469
    ##  9 It's Late love        3   469
    ## 10 It's Late true        2    25
    ## # … with 3,061 more rows
…
